<?xml version="1.0" standalone="no"?>
<!DOCTYPE svg PUBLIC "-//W3C//DTD SVG 1.1//EN" "http://www.w3.org/Graphics/SVG/1.1/DTD/svg11.dtd">
<svg xmlns="http://www.w3.org/2000/svg">
<metadata>Copyright (C) 2018 by original authors @ fontello.com</metadata>
<defs>
<font id="socialiconsfont" horiz-adv-x="1000" >
<font-face font-family="socialiconsfont" font-weight="400" font-stretch="normal" units-per-em="1000" ascent="850" descent="-150" />
<missing-glyph horiz-adv-x="1000" />
<glyph glyph-name="linkedin" unicode="&#xf0e1;" d="M195 501v-553h-184v553h184z m12 171q0-41-29-68t-75-27h-1q-46 0-74 27t-28 68q0 41 29 68t75 27 74-27 29-68z m650-407v-317h-183v296q0 59-23 92t-71 33q-35 0-58-19t-36-48q-6-17-6-45v-309h-184q1 223 1 361t0 165l-1 27h184v-80h-1q11 18 23 31t31 29 49 24 64 9q95 0 153-63t58-186z" horiz-adv-x="857.1" />

<glyph glyph-name="github" unicode="&#xf113;" d="M357 171q0-22-7-45t-24-43-40-19-41 19-24 43-7 45 7 46 24 43 41 19 40-19 24-43 7-46z m357 0q0-22-7-45t-24-43-40-19-41 19-24 43-7 45 7 46 24 43 41 19 40-19 24-43 7-46z m90 0q0 67-39 114t-104 47q-23 0-109-12-40-6-88-6t-87 6q-85 12-109 12-66 0-104-47t-39-114q0-49 18-85t45-58 68-33 78-17 83-4h94q46 0 83 4t78 17 69 33 45 58 18 85z m125 99q0-116-34-185-22-43-59-74t-79-48-95-27-96-12-93-3q-43 0-79 2t-82 7-85 17-77 29-67 45-48 64q-35 69-35 185 0 132 76 221-15 45-15 95 0 64 28 121 61 0 106-22t106-69q82 20 172 20 83 0 157-18 58 46 104 67t105 22q29-57 29-121 0-49-15-94 76-89 76-222z" horiz-adv-x="928.6" />

<glyph glyph-name="stackoverflow" unicode="&#xf16c;" d="M719-61h-624v268h-89v-357h803v357h-90v-268z m-525 293l18 87 437-92-18-87z m57 208l38 82 404-189-37-81z m112 199l57 69 343-287-57-68z m222 211l266-358-71-53-267 357z m-401-821v89h447v-89h-447z" horiz-adv-x="857.1" />

<glyph glyph-name="bitbucket" unicode="&#xf171;" d="M455 371q4-35-28-57t-63-3q-21 9-29 32t-1 46 29 32q20 11 41 7t36-20 15-37z m62 11q-8 60-63 92t-110 7q-35-15-56-49t-20-72q3-51 44-87t92-31q51 4 85 47t28 93z m133 303q-11 15-31 25t-32 12-40 7q-162 26-316-1-24-4-37-7t-30-12-28-24q16-16 42-26t41-12 49-6q127-16 250-1 35 5 50 7t40 12 42 26z m32-578q-4-14-9-42t-7-47-16-39-33-32q-48-27-106-40t-112-12-113 10q-25 5-45 10t-43 15-41 25-29 34q-14 54-31 163l3 9 10 5q124-83 283-83t283 83q12-3 13-13t-3-25-4-21z m101 537q-15-94-62-366-3-17-15-31t-24-23-31-17q-140-70-340-49-139 15-220 78-8 6-14 14t-10 20-5 19-3 22-3 20q-5 27-15 83t-16 90-13 83-12 88q2 14 10 27t17 21 26 17 25 12 27 10q70 26 175 36 211 21 377-28 86-25 120-68 9-11 9-28t-3-30z" horiz-adv-x="785.7" />

<glyph glyph-name="skype" unicode="&#xf17e;" d="M655 257q0 28-11 51t-27 38-41 27-46 19-49 13l-58 14q-17 4-25 6t-19 6-17 9-9 12-4 16q0 43 80 43 24 0 43-6t30-16 21-19 23-16 27-7q26 0 42 18t16 43q0 31-32 55t-79 38-101 13q-38 0-74-9t-67-26-49-48-19-72q0-34 10-60t32-42 44-27 58-18l81-20q51-12 63-20 18-11 18-34 0-21-23-36t-58-14q-29 0-51 9t-37 22-25 25-26 21-30 9q-28 0-42-17t-14-41q0-52 68-88t162-37q41 0 78 10t69 30 49 52 19 74z m202-121q0-89-63-152t-151-63q-73 0-131 45-43-9-83-9-80 0-153 31t-126 84-83 125-31 153q0 41 9 84-45 58-45 130 0 89 63 152t151 63q73 0 131-45 43 9 84 9 79 0 152-31t126-84 84-125 30-153q0-41-8-84 44-58 44-130z" horiz-adv-x="857.1" />
</font>
</defs>
</svg>